<?xml version="1.0" encoding="utf-8"?>
<!-- Generator: Adobe Illustrator 18.1.1, SVG Export Plug-In . SVG Version: 6.00 Build 0)  -->
<svg version="1.0" id="图层_1" xmlns="http://www.w3.org/2000/svg" xmlns:xlink="http://www.w3.org/1999/xlink" x="0px" y="0px"
	 viewBox="0 0 64 64" enable-background="new 0 0 64 64" xml:space="preserve">
<path fill="#1B8ADB" d="M32,64C14.4,64,0,49.6,0,32C0,14.4,14.4,0,32,0s32,14.4,32,32C64,49.6,49.6,64,32,64z M32,2
	C15.5,2,2,15.5,2,32s13.5,30,30,30s30-13.5,30-30S48.5,2,32,2z"/>
<path fill="#1B8ADB" d="M32,7c-7.2,0-13,5.8-13,13c0,5.1,3,9.6,7.4,11.7C16.4,34.2,9,43.3,9,54h2c0-11.6,9.4-21,21-21
	c7.2,0,13-5.8,13-13S39.2,7,32,7z M32,31c-6.1,0-11-4.9-11-11S25.9,9,32,9s11,4.9,11,11S38.1,31,32,31z"/>
<path opacity="0.5" fill="#1B8ADB" d="M54,43h-9v-9c0-0.6-0.4-1-1-1s-1,0.4-1,1v9h-9c-0.6,0-1,0.4-1,1s0.4,1,1,1h9v9
	c0,0.6,0.4,1,1,1s1-0.4,1-1v-9h9c0.6,0,1-0.4,1-1S54.6,43,54,43z"/>
</svg>
