{
    "sotnVpnInfo":{
        "name":"xdwgwe","description":"hahahah",
        "startTime":"2017-07-03","endTime":"2018-07-05",
        "COS":"premium","reroute":"Yes",
        "SLS":"sfsadf","dualLink":"Yes",
        "CIR":"dafdafd","EIR":"sddddddd",
        "CBS":"dafdaf","EBS":"qqqqqqqwwwwwww",
        "colorAware":"Yes","couplingFlag":"No"
    },
    "siteList":[
        {"name":"xiaoming","description":"congming","postcode":"xxxx","address":"beijing","sotnVpnName":"buzhid","vlan":"aaa"},
        {"name":"xiaogang","description":"congming","postcode":"xxxx","address":"guangzhou","sotnVpnName":"buzhid","vlan":"aaa"}
    ],
    "siteGroupList":[
        {"id":"123","name":"sssiy","topology":"hahahha","sites":"xxxxx","rloe":"eeexxxx"},
        {"id":"3333","name":"sssiy","topology":"hahahha","sites":"xxxxx","rloe":"eeexxxx"}
    ]
}