
[
    {
        "uuid": "d0a4af63-570c-40b3-a26f-ef11366f0a03",
        "invariantUUID": "88dcb2f0-085b-4548-8b93-0882e37d25d8",
        "name": "SDWANVPNInfraService",
        "version": "2.0",
        "toscaModelURL": "/sdc/v1/catalog/services/d0a4af63-570c-40b3-a26f-ef11366f0a03/toscaModel",
        "category": "E2E Service"
    },
    {
        "uuid": "4ca96a53-2e18-4297-8dc7-5776fdf6871b",
        "invariantUUID": "21886a96-0664-47a3-beae-766952f2059f",
        "name": "SOTNVPNInfraService",
        "version": "2.0",
        "toscaModelURL": "/sdc/v1/catalog/services/4ca96a53-2e18-4297-8dc7-5776fdf6871b/toscaModel",
        "category": "E2E Service"
    },
    {
        "uuid": "ea8bb4d2-00ea-4aeb-ad76-20ac8cb1c99c",
        "invariantUUID": "342ff5e8-5592-4455-a537-a81172c9d541",
        "name": "sowsiteservice",
        "version": "3.0",
        "toscaModelURL": "/sdc/v1/catalog/services/ea8bb4d2-00ea-4aeb-ad76-20ac8cb1c99c/toscaModel",
        "category": "E2E Service"
    },
    {
        "uuid": "cb756ffb-8d91-49fb-86f7-12ceb2b13158",
        "invariantUUID": "a7029145-4294-4664-b619-00dc959a1ff6",
        "name": "SiteServiceV3",
        "version": "1.0",
        "toscaModelURL": "/sdc/v1/catalog/services/cb756ffb-8d91-49fb-86f7-12ceb2b13158/toscaModel",
        "category": "E2E Service"
    },
    {
        "uuid": "4b4b3ef8-6747-4111-b9e0-81cf251c0068",
        "invariantUUID": "5c13f3fb-2744-4635-9f1f-c59c92dc8f70",
        "name": "SiteService",
        "version": "2.0",
        "toscaModelURL": "/sdc/v1/catalog/services/4b4b3ef8-6747-4111-b9e0-81cf251c0068/toscaModel",
        "category": "E2E Service"
    }
]
