
[
    {"name":"template1","uuid":"uuidxxx","invariantUUID":"dddd1","version":"1.20"},
    {"name":"template2","uuid":"uuidxxx","invariantUUID":"dddd2","version":"1.20"},
    {"name":"template3","uuid":"uuidxxxx","invariantUUID":"dddd3","version":"1.20"},
    {"name":"template4","uuid":"uuidaaa","invariantUUID":"dddd4","version":"1.20"},
    {"name":"template5","uuid":"uuidaaa","invariantUUID":"dddd5","version":"1.20"},
    {"name":"template6","uuid":"uuidaaaa","invariantUUID":"dddd6","version":"1.20"},
    {"name":"template7","uuid":"uuidbbb","invariantUUID":"dddd7","version":"1.20"},
    {"name":"template8","uuid":"uuidbbb","invariantUUID":"dddd8","version":"1.20"},
    {"name":"template9","uuid":"uuidbbbb","invariantUUID":"dddd9","version":"1.20"},
    {"name":"template10","uuid":"uuidaaaa","invariantUUID":"dddd10","version":"1.20"},
    {"name":"template11","uuid":"uuidxxx","invariantUUID":"dddd11","version":"1.20"},
    {"name":"template12","uuid":"uuidccc","invariantUUID":"dddd12","version":"1.20"},
    {"name":"template13","uuid":"uuidccc","invariantUUID":"dddd13","version":"1.20"},
    {"name":"template14","uuid":"uuidccc","invariantUUID":"dddd14","version":"1.20"},
    {"name":"template15","uuid":"uuidxxx","invariantUUID":"dddd15","version":"1.20"},
    {"name":"template16","uuid":"uuidbbbb","invariantUUID":"dddd16","version":"1.20"}
]
